(module jumper_open_THT_big (layer F.Cu) (tedit 5B3F7017)
  (fp_text reference REF** (at 0 2) (layer F.SilkS)
    (effects (font (size 1 1) (thickness 0.15)))
  )
  (fp_text value jumper_open (at 0.25 -2.25) (layer F.Fab)
    (effects (font (size 1 1) (thickness 0.15)))
  )
  (pad 2 thru_hole rect (at 1 0) (size 1.5 2.5) (drill 0.8) (layers *.Cu *.Mask))
  (pad 1 thru_hole rect (at -1 0) (size 1.5 2.5) (drill 0.8) (layers *.Cu *.Mask))
)
